C:\Users\Dalibor\Documents\NetBeansProjects\Mitic-Dalibor-FON-FISweb\src\main\java\mitic\dalibor\fon\fisweb\action\impl\LoginAction.java
C:\Users\Dalibor\Documents\NetBeansProjects\Mitic-Dalibor-FON-FISweb\src\main\java\mitic\dalibor\fon\fisweb\constants\ActionConstants.java
C:\Users\Dalibor\Documents\NetBeansProjects\Mitic-Dalibor-FON-FISweb\src\main\java\mitic\dalibor\fon\fisweb\frontcontroller\FrontController.java
C:\Users\Dalibor\Documents\NetBeansProjects\Mitic-Dalibor-FON-FISweb\src\main\java\mitic\dalibor\fon\fisweb\action\factory\ActionFactory.java
C:\Users\Dalibor\Documents\NetBeansProjects\Mitic-Dalibor-FON-FISweb\src\main\java\mitic\dalibor\fon\fisweb\controller\ApplicationController.java
C:\Users\Dalibor\Documents\NetBeansProjects\Mitic-Dalibor-FON-FISweb\src\main\java\mitic\dalibor\fon\fisweb\constants\PageConstants.java
C:\Users\Dalibor\Documents\NetBeansProjects\Mitic-Dalibor-FON-FISweb\src\main\java\mitic\dalibor\fon\fisweb\action\AbstractAction.java
C:\Users\Dalibor\Documents\NetBeansProjects\Mitic-Dalibor-FON-FISweb\src\main\java\mitic\dalibor\fon\fisweb\action\impl\AddDepartmentAction.java
C:\Users\Dalibor\Documents\NetBeansProjects\Mitic-Dalibor-FON-FISweb\src\main\java\mitic\dalibor\fon\fisweb\action\impl\AllDepartmentsAction.java
C:\Users\Dalibor\Documents\NetBeansProjects\Mitic-Dalibor-FON-FISweb\src\main\java\mitic\dalibor\fon\fisweb\listener\MyApplicationContextListener.java
C:\Users\Dalibor\Documents\NetBeansProjects\Mitic-Dalibor-FON-FISweb\src\main\java\mitic\dalibor\fon\fisweb\model\Department.java
C:\Users\Dalibor\Documents\NetBeansProjects\Mitic-Dalibor-FON-FISweb\src\main\java\mitic\dalibor\fon\fisweb\viewresolver\ViewResolver.java
C:\Users\Dalibor\Documents\NetBeansProjects\Mitic-Dalibor-FON-FISweb\src\main\java\mitic\dalibor\fon\fisweb\model\User.java
